Lab_VHDL/simulation/qsim/LabVhdl.msim.vcd
$comment
	File created using the following command:
		vcd file LabVhdl.msim.vcd -direction
$end
$date
	Thu Oct 25 15:02:44 2018
$end
$version
	ModelSim Version 10.5b
$end
$timescale
	1ps
$end

$scope module ula16bits_vhd_vec_tst $end
$var wire 1 ! DADO1 [15] $end
$var wire 1 " DADO1 [14] $end
$var wire 1 # DADO1 [13] $end
$var wire 1 $ DADO1 [12] $end
$var wire 1 % DADO1 [11] $end
$var wire 1 & DADO1 [10] $end
$var wire 1 ' DADO1 [9] $end
$var wire 1 ( DADO1 [8] $end
$var wire 1 ) DADO1 [7] $end
$var wire 1 * DADO1 [6] $end
$var wire 1 + DADO1 [5] $end
$var wire 1 , DADO1 [4] $end
$var wire 1 - DADO1 [3] $end
$var wire 1 . DADO1 [2] $end
$var wire 1 / DADO1 [1] $end
$var wire 1 0 DADO1 [0] $end
$var wire 1 1 DADO2 [15] $end
$var wire 1 2 DADO2 [14] $end
$var wire 1 3 DADO2 [13] $end
$var wire 1 4 DADO2 [12] $end
$var wire 1 5 DADO2 [11] $end
$var wire 1 6 DADO2 [10] $end
$var wire 1 7 DADO2 [9] $end
$var wire 1 8 DADO2 [8] $end
$var wire 1 9 DADO2 [7] $end
$var wire 1 : DADO2 [6] $end
$var wire 1 ; DADO2 [5] $end
$var wire 1 < DADO2 [4] $end
$var wire 1 = DADO2 [3] $end
$var wire 1 > DADO2 [2] $end
$var wire 1 ? DADO2 [1] $end
$var wire 1 @ DADO2 [0] $end
$var wire 1 A SAIDA [15] $end
$var wire 1 B SAIDA [14] $end
$var wire 1 C SAIDA [13] $end
$var wire 1 D SAIDA [12] $end
$var wire 1 E SAIDA [11] $end
$var wire 1 F SAIDA [10] $end
$var wire 1 G SAIDA [9] $end
$var wire 1 H SAIDA [8] $end
$var wire 1 I SAIDA [7] $end
$var wire 1 J SAIDA [6] $end
$var wire 1 K SAIDA [5] $end
$var wire 1 L SAIDA [4] $end
$var wire 1 M SAIDA [3] $end
$var wire 1 N SAIDA [2] $end
$var wire 1 O SAIDA [1] $end
$var wire 1 P SAIDA [0] $end
$var wire 1 Q SEL [3] $end
$var wire 1 R SEL [2] $end
$var wire 1 S SEL [1] $end
$var wire 1 T SEL [0] $end

$scope module i1 $end
$var wire 1 U gnd $end
$var wire 1 V vcc $end
$var wire 1 W unknown $end
$var wire 1 X devoe $end
$var wire 1 Y devclrn $end
$var wire 1 Z devpor $end
$var wire 1 [ ww_devoe $end
$var wire 1 \ ww_devclrn $end
$var wire 1 ] ww_devpor $end
$var wire 1 ^ ww_DADO1 [15] $end
$var wire 1 _ ww_DADO1 [14] $end
$var wire 1 ` ww_DADO1 [13] $end
$var wire 1 a ww_DADO1 [12] $end
$var wire 1 b ww_DADO1 [11] $end
$var wire 1 c ww_DADO1 [10] $end
$var wire 1 d ww_DADO1 [9] $end
$var wire 1 e ww_DADO1 [8] $end
$var wire 1 f ww_DADO1 [7] $end
$var wire 1 g ww_DADO1 [6] $end
$var wire 1 h ww_DADO1 [5] $end
$var wire 1 i ww_DADO1 [4] $end
$var wire 1 j ww_DADO1 [3] $end
$var wire 1 k ww_DADO1 [2] $end
$var wire 1 l ww_DADO1 [1] $end
$var wire 1 m ww_DADO1 [0] $end
$var wire 1 n ww_DADO2 [15] $end
$var wire 1 o ww_DADO2 [14] $end
$var wire 1 p ww_DADO2 [13] $end
$var wire 1 q ww_DADO2 [12] $end
$var wire 1 r ww_DADO2 [11] $end
$var wire 1 s ww_DADO2 [10] $end
$var wire 1 t ww_DADO2 [9] $end
$var wire 1 u ww_DADO2 [8] $end
$var wire 1 v ww_DADO2 [7] $end
$var wire 1 w ww_DADO2 [6] $end
$var wire 1 x ww_DADO2 [5] $end
$var wire 1 y ww_DADO2 [4] $end
$var wire 1 z ww_DADO2 [3] $end
$var wire 1 { ww_DADO2 [2] $end
$var wire 1 | ww_DADO2 [1] $end
$var wire 1 } ww_DADO2 [0] $end
$var wire 1 ~ ww_SEL [3] $end
$var wire 1 !! ww_SEL [2] $end
$var wire 1 "! ww_SEL [1] $end
$var wire 1 #! ww_SEL [0] $end
$var wire 1 $! ww_SAIDA [15] $end
$var wire 1 %! ww_SAIDA [14] $end
$var wire 1 &! ww_SAIDA [13] $end
$var wire 1 '! ww_SAIDA [12] $end
$var wire 1 (! ww_SAIDA [11] $end
$var wire 1 )! ww_SAIDA [10] $end
$var wire 1 *! ww_SAIDA [9] $end
$var wire 1 +! ww_SAIDA [8] $end
$var wire 1 ,! ww_SAIDA [7] $end
$var wire 1 -! ww_SAIDA [6] $end
$var wire 1 .! ww_SAIDA [5] $end
$var wire 1 /! ww_SAIDA [4] $end
$var wire 1 0! ww_SAIDA [3] $end
$var wire 1 1! ww_SAIDA [2] $end
$var wire 1 2! ww_SAIDA [1] $end
$var wire 1 3! ww_SAIDA [0] $end
$var wire 1 4! \~QUARTUS_CREATED_GND~I_combout\ $end
$var wire 1 5! \SEL[0]~input_o\ $end
$var wire 1 6! \SEL[3]~input_o\ $end
$var wire 1 7! \DADO1[0]~input_o\ $end
$var wire 1 8! \SEL[1]~input_o\ $end
$var wire 1 9! \SEL[2]~input_o\ $end
$var wire 1 :! \DADO2[0]~input_o\ $end
$var wire 1 ;! \G12|Add0~80_cout\ $end
$var wire 1 <! \G12|Add0~3_sumout\ $end
$var wire 1 =! \DADO1[2]~input_o\ $end
$var wire 1 >! \DADO2[2]~input_o\ $end
$var wire 1 ?! \G12|Add0~1_combout\ $end
$var wire 1 @! \G13|Mux16~4_combout\ $end
$var wire 1 A! \G13|Mux16~0_combout\ $end
$var wire 1 B! \G13|Mux0~0_combout\ $end
$var wire 1 C! \DADO1[1]~input_o\ $end
$var wire 1 D! \DADO2[1]~input_o\ $end
$var wire 1 E! \DADO2[3]~input_o\ $end
$var wire 1 F! \DADO1[3]~input_o\ $end
$var wire 1 G! \G12|Add0~7_combout\ $end
$var wire 1 H! \G12|Add0~4\ $end
$var wire 1 I! \G12|Add0~9_sumout\ $end
$var wire 1 J! \G13|Mux15~4_combout\ $end
$var wire 1 K! \G13|Mux15~0_combout\ $end
$var wire 1 L! \G12|Add0~0_combout\ $end
$var wire 1 M! \G13|Mux14~0_combout\ $end
$var wire 1 N! \G12|Add0~10\ $end
$var wire 1 O! \G12|Add0~14_sumout\ $end
$var wire 1 P! \DADO1[4]~input_o\ $end
$var wire 1 Q! \DADO2[4]~input_o\ $end
$var wire 1 R! \G12|Add0~12_combout\ $end
$var wire 1 S! \G13|Mux14~1_combout\ $end
$var wire 1 T! \G12|Add0~15\ $end
$var wire 1 U! \G12|Add0~19_sumout\ $end
$var wire 1 V! \DADO2[5]~input_o\ $end
$var wire 1 W! \DADO1[5]~input_o\ $end
$var wire 1 X! \G12|Add0~17_combout\ $end
$var wire 1 Y! \G12|Add0~6_combout\ $end
$var wire 1 Z! \G13|Mux13~0_combout\ $end
$var wire 1 [! \G13|Mux13~1_combout\ $end
$var wire 1 \! \G13|Mux12~0_combout\ $end
$var wire 1 ]! \DADO1[6]~input_o\ $end
$var wire 1 ^! \DADO2[6]~input_o\ $end
$var wire 1 _! \G12|Add0~22_combout\ $end
$var wire 1 `! \G12|Add0~20\ $end
$var wire 1 a! \G12|Add0~24_sumout\ $end
$var wire 1 b! \G13|Mux12~1_combout\ $end
$var wire 1 c! \G12|Add0~25\ $end
$var wire 1 d! \G12|Add0~29_sumout\ $end
$var wire 1 e! \DADO2[7]~input_o\ $end
$var wire 1 f! \DADO1[7]~input_o\ $end
$var wire 1 g! \G12|Add0~27_combout\ $end
$var wire 1 h! \G13|Mux11~0_combout\ $end
$var wire 1 i! \G13|Mux11~1_combout\ $end
$var wire 1 j! \DADO2[8]~input_o\ $end
$var wire 1 k! \DADO1[8]~input_o\ $end
$var wire 1 l! \G12|Add0~32_combout\ $end
$var wire 1 m! \G13|Mux10~0_combout\ $end
$var wire 1 n! \G12|Add0~30\ $end
$var wire 1 o! \G12|Add0~34_sumout\ $end
$var wire 1 p! \G13|Mux10~1_combout\ $end
$var wire 1 q! \G12|Add0~35\ $end
$var wire 1 r! \G12|Add0~39_sumout\ $end
$var wire 1 s! \DADO1[9]~input_o\ $end
$var wire 1 t! \DADO2[9]~input_o\ $end
$var wire 1 u! \G12|Add0~37_combout\ $end
$var wire 1 v! \G13|Mux9~0_combout\ $end
$var wire 1 w! \G13|Mux9~1_combout\ $end
$var wire 1 x! \G13|Mux8~0_combout\ $end
$var wire 1 y! \DADO2[10]~input_o\ $end
$var wire 1 z! \DADO1[10]~input_o\ $end
$var wire 1 {! \G12|Add0~42_combout\ $end
$var wire 1 |! \G12|Add0~40\ $end
$var wire 1 }! \G12|Add0~44_sumout\ $end
$var wire 1 ~! \G13|Mux8~1_combout\ $end
$var wire 1 !" \DADO2[11]~input_o\ $end
$var wire 1 "" \DADO1[11]~input_o\ $end
$var wire 1 #" \G12|Add0~47_combout\ $end
$var wire 1 $" \G13|Mux7~0_combout\ $end
$var wire 1 %" \G12|Add0~45\ $end
$var wire 1 &" \G12|Add0~49_sumout\ $end
$var wire 1 '" \G13|Mux7~1_combout\ $end
$var wire 1 (" \G12|Add0~50\ $end
$var wire 1 )" \G12|Add0~54_sumout\ $end
$var wire 1 *" \G13|Mux6~0_combout\ $end
$var wire 1 +" \DADO1[12]~input_o\ $end
$var wire 1 ," \DADO2[12]~input_o\ $end
$var wire 1 -" \G12|Add0~52_combout\ $end
$var wire 1 ." \G13|Mux6~1_combout\ $end
$var wire 1 /" \G13|Mux5~0_combout\ $end
$var wire 1 0" \DADO2[13]~input_o\ $end
$var wire 1 1" \DADO1[13]~input_o\ $end
$var wire 1 2" \G12|Add0~57_combout\ $end
$var wire 1 3" \G12|Add0~55\ $end
$var wire 1 4" \G12|Add0~59_sumout\ $end
$var wire 1 5" \G13|Mux5~1_combout\ $end
$var wire 1 6" \G12|Add0~60\ $end
$var wire 1 7" \G12|Add0~63_sumout\ $end
$var wire 1 8" \DADO1[14]~input_o\ $end
$var wire 1 9" \DADO2[14]~input_o\ $end
$var wire 1 :" \G13|Mux4~1_combout\ $end
$var wire 1 ;" \G13|Mux4~0_combout\ $end
$var wire 1 <" \G13|Mux4~2_combout\ $end
$var wire 1 =" \DADO2[15]~input_o\ $end
$var wire 1 >" \DADO1[15]~input_o\ $end
$var wire 1 ?" \G13|Mux3~1_combout\ $end
$var wire 1 @" \G13|Mux3~0_combout\ $end
$var wire 1 A" \G12|Add0~64\ $end
$var wire 1 B" \G12|Add0~67_sumout\ $end
$var wire 1 C" \G13|Mux3~2_combout\ $end
$var wire 1 D" \G12|Add0~68\ $end
$var wire 1 E" \G12|Add0~71_sumout\ $end
$var wire 1 F" \G13|Mux2~0_combout\ $end
$var wire 1 G" \G13|Mux2~1_combout\ $end
$var wire 1 H" \G13|Mux1~0_combout\ $end
$var wire 1 I" \G12|Add0~72\ $end
$var wire 1 J" \G12|Add0~75_sumout\ $end
$var wire 1 K" \G13|Mux1~1_combout\ $end
$var wire 1 L" \G12|ALT_INV_Add0~67_sumout\ $end
$var wire 1 M" \G12|ALT_INV_Add0~63_sumout\ $end
$var wire 1 N" \G12|ALT_INV_Add0~59_sumout\ $end
$var wire 1 O" \G12|ALT_INV_Add0~54_sumout\ $end
$var wire 1 P" \G12|ALT_INV_Add0~49_sumout\ $end
$var wire 1 Q" \G12|ALT_INV_Add0~44_sumout\ $end
$var wire 1 R" \G12|ALT_INV_Add0~39_sumout\ $end
$var wire 1 S" \G12|ALT_INV_Add0~34_sumout\ $end
$var wire 1 T" \G12|ALT_INV_Add0~29_sumout\ $end
$var wire 1 U" \G12|ALT_INV_Add0~24_sumout\ $end
$var wire 1 V" \G12|ALT_INV_Add0~19_sumout\ $end
$var wire 1 W" \G12|ALT_INV_Add0~14_sumout\ $end
$var wire 1 X" \G12|ALT_INV_Add0~9_sumout\ $end
$var wire 1 Y" \G12|ALT_INV_Add0~3_sumout\ $end
$var wire 1 Z" \ALT_INV_DADO1[15]~input_o\ $end
$var wire 1 [" \ALT_INV_DADO2[15]~input_o\ $end
$var wire 1 \" \ALT_INV_DADO1[14]~input_o\ $end
$var wire 1 ]" \ALT_INV_DADO2[14]~input_o\ $end
$var wire 1 ^" \ALT_INV_DADO1[13]~input_o\ $end
$var wire 1 _" \ALT_INV_DADO2[13]~input_o\ $end
$var wire 1 `" \ALT_INV_DADO1[12]~input_o\ $end
$var wire 1 a" \ALT_INV_DADO2[12]~input_o\ $end
$var wire 1 b" \ALT_INV_DADO1[11]~input_o\ $end
$var wire 1 c" \ALT_INV_DADO2[11]~input_o\ $end
$var wire 1 d" \ALT_INV_DADO1[10]~input_o\ $end
$var wire 1 e" \ALT_INV_DADO2[10]~input_o\ $end
$var wire 1 f" \ALT_INV_DADO1[9]~input_o\ $end
$var wire 1 g" \ALT_INV_DADO2[9]~input_o\ $end
$var wire 1 h" \ALT_INV_DADO1[8]~input_o\ $end
$var wire 1 i" \ALT_INV_DADO2[8]~input_o\ $end
$var wire 1 j" \ALT_INV_DADO1[7]~input_o\ $end
$var wire 1 k" \ALT_INV_DADO2[7]~input_o\ $end
$var wire 1 l" \ALT_INV_DADO1[6]~input_o\ $end
$var wire 1 m" \ALT_INV_DADO2[6]~input_o\ $end
$var wire 1 n" \ALT_INV_DADO1[5]~input_o\ $end
$var wire 1 o" \ALT_INV_DADO2[5]~input_o\ $end
$var wire 1 p" \ALT_INV_DADO1[4]~input_o\ $end
$var wire 1 q" \ALT_INV_DADO2[4]~input_o\ $end
$var wire 1 r" \ALT_INV_DADO1[3]~input_o\ $end
$var wire 1 s" \ALT_INV_DADO2[3]~input_o\ $end
$var wire 1 t" \ALT_INV_DADO1[1]~input_o\ $end
$var wire 1 u" \ALT_INV_DADO2[1]~input_o\ $end
$var wire 1 v" \ALT_INV_DADO1[2]~input_o\ $end
$var wire 1 w" \ALT_INV_DADO2[2]~input_o\ $end
$var wire 1 x" \ALT_INV_DADO1[0]~input_o\ $end
$var wire 1 y" \ALT_INV_SEL[0]~input_o\ $end
$var wire 1 z" \ALT_INV_DADO2[0]~input_o\ $end
$var wire 1 {" \ALT_INV_SEL[3]~input_o\ $end
$var wire 1 |" \ALT_INV_SEL[1]~input_o\ $end
$var wire 1 }" \ALT_INV_SEL[2]~input_o\ $end
$var wire 1 ~" \G13|ALT_INV_Mux1~0_combout\ $end
$var wire 1 !# \G13|ALT_INV_Mux2~0_combout\ $end
$var wire 1 "# \G13|ALT_INV_Mux3~1_combout\ $end
$var wire 1 ## \G13|ALT_INV_Mux3~0_combout\ $end
$var wire 1 $# \G13|ALT_INV_Mux4~1_combout\ $end
$var wire 1 %# \G13|ALT_INV_Mux4~0_combout\ $end
$var wire 1 &# \G12|ALT_INV_Add0~57_combout\ $end
$var wire 1 '# \G13|ALT_INV_Mux5~0_combout\ $end
$var wire 1 (# \G12|ALT_INV_Add0~52_combout\ $end
$var wire 1 )# \G13|ALT_INV_Mux6~0_combout\ $end
$var wire 1 *# \G12|ALT_INV_Add0~47_combout\ $end
$var wire 1 +# \G13|ALT_INV_Mux7~0_combout\ $end
$var wire 1 ,# \G12|ALT_INV_Add0~42_combout\ $end
$var wire 1 -# \G13|ALT_INV_Mux8~0_combout\ $end
$var wire 1 .# \G12|ALT_INV_Add0~37_combout\ $end
$var wire 1 /# \G13|ALT_INV_Mux9~0_combout\ $end
$var wire 1 0# \G12|ALT_INV_Add0~32_combout\ $end
$var wire 1 1# \G13|ALT_INV_Mux10~0_combout\ $end
$var wire 1 2# \G12|ALT_INV_Add0~27_combout\ $end
$var wire 1 3# \G13|ALT_INV_Mux11~0_combout\ $end
$var wire 1 4# \G12|ALT_INV_Add0~22_combout\ $end
$var wire 1 5# \G13|ALT_INV_Mux12~0_combout\ $end
$var wire 1 6# \G12|ALT_INV_Add0~17_combout\ $end
$var wire 1 7# \G13|ALT_INV_Mux13~0_combout\ $end
$var wire 1 8# \G12|ALT_INV_Add0~12_combout\ $end
$var wire 1 9# \G13|ALT_INV_Mux14~0_combout\ $end
$var wire 1 :# \G12|ALT_INV_Add0~7_combout\ $end
$var wire 1 ;# \G12|ALT_INV_Add0~6_combout\ $end
$var wire 1 <# \G12|ALT_INV_Add0~1_combout\ $end
$var wire 1 =# \G12|ALT_INV_Add0~0_combout\ $end
$var wire 1 ># \G13|ALT_INV_Mux16~4_combout\ $end
$var wire 1 ?# \G13|ALT_INV_Mux15~4_combout\ $end
$var wire 1 @# \G12|ALT_INV_Add0~75_sumout\ $end
$var wire 1 A# \G12|ALT_INV_Add0~71_sumout\ $end
$upscope $end
$upscope $end
$enddefinitions $end
#0
$dumpvars
0U
1V
xW
1X
1Y
1Z
1[
1\
1]
x4!
05!
06!
07!
08!
09!
0:!
0;!
0<!
0=!
0>!
0?!
0@!
0A!
1B!
0C!
0D!
0E!
0F!
0G!
0H!
0I!
0J!
0K!
0L!
1M!
0N!
0O!
0P!
0Q!
0R!
0S!
0T!
0U!
0V!
0W!
0X!
0Y!
1Z!
0[!
1\!
0]!
0^!
0_!
0`!
0a!
0b!
0c!
0d!
0e!
0f!
0g!
1h!
0i!
0j!
0k!
0l!
1m!
0n!
0o!
0p!
0q!
0r!
0s!
0t!
0u!
1v!
0w!
1x!
0y!
0z!
0{!
0|!
0}!
0~!
0!"
0""
0#"
1$"
0%"
0&"
0'"
0("
0)"
1*"
0+"
0,"
0-"
0."
1/"
00"
01"
02"
03"
04"
05"
06"
07"
08"
09"
0:"
1;"
0<"
0="
0>"
0?"
1@"
0A"
0B"
0C"
0D"
0E"
1F"
0G"
1H"
0I"
0J"
0K"
1L"
1M"
1N"
1O"
1P"
1Q"
1R"
1S"
1T"
1U"
1V"
1W"
1X"
1Y"
1Z"
1["
1\"
1]"
1^"
1_"
1`"
1a"
1b"
1c"
1d"
1e"
1f"
1g"
1h"
1i"
1j"
1k"
1l"
1m"
1n"
1o"
1p"
1q"
1r"
1s"
1t"
1u"
1v"
1w"
1x"
1y"
1z"
1{"
1|"
1}"
0~"
0!#
1"#
0##
1$#
0%#
1&#
0'#
1(#
0)#
1*#
0+#
1,#
0-#
1.#
0/#
10#
01#
12#
03#
14#
05#
16#
07#
18#
09#
1:#
1;#
1<#
1=#
1>#
1?#
1@#
1A#
0!
0"
0#
0$
0%
0&
0'
0(
0)
0*
0+
0,
0-
0.
0/
00
01
02
03
04
05
06
07
08
09
0:
0;
0<
0=
0>
0?
0@
0Q
0R
0S
0T
0^
0_
0`
0a
0b
0c
0d
0e
0f
0g
0h
0i
0j
0k
0l
0m
0n
0o
0p
0q
0r
0s
0t
0u
0v
0w
0x
0y
0z
0{
0|
0}
0~
0!!
0"!
0#!
0$!
0%!
0&!
0'!
0(!
0)!
0*!
0+!
0,!
0-!
0.!
0/!
00!
01!
02!
03!
0A
0B
0C
0D
0E
0F
0G
0H
0I
0J
0K
0L
0M
0N
0O
0P
$end
#3000
1@
1}
1:!
0z"
1<!
0Y"
#6000
0@
1?
1T
0}
1|
1#!
15!
1D!
0:!
1z"
0u"
0y"
1;!
1@!
1O!
1U!
1a!
1d!
1o!
1r!
1}!
1&"
1)"
14"
17"
1B"
1E"
1J"
1Y!
1J!
0@!
0;#
0@#
0A#
0L"
0M"
0N"
0O"
0P"
0Q"
0R"
0S"
0T"
0U"
0V"
0W"
0>#
0<!
1H!
1>#
0?#
1Y"
1A!
1I!
1K!
0A!
0X"
13!
03!
12!
1P
0P
1O
#9000
1@
1}
1:!
0z"
1<!
0H!
1L!
1@!
0=#
0Y"
0I!
0>#
1X"
1A!
13!
1P
#10000
10
1m
17!
0x"
0<!
1H!
1Y"
1I!
0X"
#12000
0@
0?
0T
1>
1S
0}
0|
1{
0#!
1"!
18!
05!
1>!
0D!
0:!
1z"
1u"
0w"
1y"
0|"
0;!
0@!
0U!
0Z!
0\!
0a!
0d!
0h!
0m!
0o!
0r!
0v!
0x!
0}!
0$"
0&"
0)"
0*"
0/"
04"
07"
0;"
0@"
0B"
0E"
0F"
0H"
0J"
0M!
0Y!
1;#
19#
1@#
1~"
1!#
1A#
1L"
1##
1%#
1M"
1N"
1'#
1)#
1O"
1P"
1+#
1Q"
1-#
1/#
1R"
1S"
11#
13#
1T"
1U"
15#
17#
1V"
1>#
1<!
0H!
1[!
1b!
1i!
1p!
1w!
1~!
1'"
1."
15"
1<"
1C"
1G"
1K"
1S!
0Y"
0A!
0I!
1X"
11!
1$!
1%!
1&!
1'!
1(!
1)!
1*!
1+!
1,!
1-!
1.!
1/!
10!
03!
1N
1M
1L
1K
1J
1I
1H
1G
1F
1E
1D
1C
1B
1A
0P
#15000
1@
1}
1:!
0z"
0<!
1H!
1Y"
1I!
0X"
#18000
0@
1?
1T
0}
1|
1#!
15!
1D!
0:!
1z"
0u"
0y"
1;!
1?!
1M!
0O!
1U!
1a!
1d!
1o!
1r!
1}!
1&"
1)"
14"
17"
1B"
1E"
1J"
1Y!
0L!
0J!
1@!
1=#
0;#
0@#
0A#
0L"
0M"
0N"
0O"
0P"
0Q"
0R"
0S"
0T"
0U"
0V"
1W"
09#
0<#
1<!
0>#
1?#
0S!
0Y"
0K!
1A!
01!
0N
13!
02!
1P
0O
#20000
00
1/
0m
1l
1C!
07!
1x"
0t"
0I!
1N!
0<!
1Y"
1X"
1O!
0W"
#21000
1@
1}
1:!
0z"
1<!
0H!
1L!
0@!
0=#
0Y"
1I!
0N!
1>#
0X"
0O!
0A!
1W"
03!
0P
#24000
0@
0?
0T
0>
0S
1=
1R
0}
0|
0{
1z
0#!
0"!
1!!
19!
08!
05!
1E!
0>!
0D!
0:!
1z"
1u"
1w"
0s"
1y"
1|"
0}"
0;!
1\!
0a!
0d!
1h!
1m!
0o!
0r!
1v!
1x!
0}!
1$"
0&"
0)"
1*"
1/"
04"
07"
1;"
1@"
0B"
0E"
1F"
1H"
0J"
0?!
1J!
1K!
0L!
0J!
1=#
0?#
1<#
1@#
0~"
0!#
1A#
1L"
0##
0%#
1M"
1N"
0'#
0)#
1O"
1P"
0+#
1Q"
0-#
0/#
1R"
1S"
01#
03#
1T"
1U"
05#
0<!
1?#
0b!
0i!
0p!
0w!
0~!
0'"
0."
05"
0<"
0C"
0G"
0K"
1Y"
12!
1O
0$!
0%!
0&!
0'!
0(!
0)!
0*!
0+!
0,!
0-!
0.!
0/!
0L
0K
0J
0I
0H
0G
0F
0E
0D
0C
0B
0A
#27000
1@
1}
1:!
0z"
1<!
1A!
0Y"
13!
1P
#30000
0@
1?
1T
10
0}
1|
1#!
1m
17!
15!
1D!
0:!
1z"
0u"
0y"
0x"
1;!
1@!
1G!
0M!
1O!
0U!
0\!
1a!
1d!
0h!
0m!
1o!
1r!
0v!
0x!
1}!
0$"
1&"
1)"
0*"
0/"
14"
17"
0;"
0@"
1B"
1E"
0F"
0H"
1J"
1J!
0K!
0<!
1H!
1Y"
0?#
0@#
1~"
1!#
0A#
0L"
1##
1%#
0M"
0N"
1'#
1)#
0O"
0P"
1+#
0Q"
1-#
1/#
0R"
0S"
11#
13#
0T"
0U"
15#
1V"
0W"
19#
0:#
0>#
0I!
1N!
1<!
1S!
1b!
1i!
1p!
1w!
1~!
1'"
1."
15"
1<"
1C"
1G"
1K"
0Y"
1X"
0O!
1T!
02!
1W"
1U!
0O
0V"
1$!
1%!
1&!
1'!
1(!
1)!
1*!
1+!
1,!
1-!
1.!
1/!
11!
1N
1L
1K
1J
1I
1H
1G
1F
1E
1D
1C
1B
1A
#33000
1@
1}
1:!
0z"
0<!
0A!
1L!
0=#
1Y"
03!
0P
#36000
0@
0?
0T
1>
1S
0}
0|
1{
0#!
1"!
18!
05!
1>!
0D!
0:!
1z"
1u"
0w"
1y"
0|"
0;!
0@!
0G!
0U!
1`!
1\!
0a!
0d!
1m!
0o!
0r!
1v!
1x!
0}!
1$"
0&"
0)"
1*"
1/"
04"
07"
1;"
1@"
0B"
0E"
1F"
1H"
0J"
0J!
1@#
0~"
0!#
1A#
1L"
0##
0%#
1M"
1N"
0'#
0)#
1O"
1P"
0+#
1Q"
0-#
0/#
1R"
1S"
01#
1T"
1U"
05#
1V"
1:#
1>#
1a!
1<!
0H!
1?#
1h!
0b!
0p!
0w!
0~!
0'"
0."
05"
0<"
0C"
0G"
0K"
0Y"
0U"
1I!
0N!
03#
0X"
0i!
1O!
0T!
0W"
0$!
0%!
0&!
0'!
0(!
0)!
0*!
0+!
0,!
0-!
0/!
1U!
0`!
0V"
0L
0J
0I
0H
0G
0F
0E
0D
0C
0B
0A
0a!
0.!
1U"
0K
#39000
1@
1}
1:!
0z"
0<!
1H!
1Y"
0I!
1N!
1X"
0O!
1T!
1W"
0U!
1`!
1V"
1a!
0U"
#40000
00
0/
1.
0m
0l
1k
1=!
0C!
07!
1x"
1t"
0v"
1?!
1O!
1I!
0N!
1J!
0Y!
1<!
0H!
1@!
0L!
1=#
0>#
0Y"
1;#
0?#
0X"
0W"
0<#
0I!
0O!
0\!
1Z!
1M!
1W"
1X"
09#
07#
15#
1b!
0[!
0S!
01!
00!
1/!
0N
0M
1L
#42000
0@
1?
1T
0}
1|
1#!
15!
1D!
0:!
1z"
0u"
0y"
1;!
0@!
1G!
1O!
0T!
1U!
0`!
0a!
1c!
1d!
1o!
1r!
1}!
1&"
1)"
14"
17"
1B"
1E"
1J"
1Y!
0J!
1@!
0;#
0@#
0A#
0L"
0M"
0N"
0O"
0P"
0Q"
0R"
0S"
0T"
1U"
0V"
0W"
0:#
1>#
0d!
1n!
1a!
0c!
0U!
0<!
1H!
0>#
1?#
0h!
0Z!
1Y"
1V"
0U"
1T"
1I!
1d!
0n!
0o!
1q!
17#
13#
1S"
0T"
0X"
1i!
1[!
0r!
1|!
1o!
0q!
0S"
1R"
1r!
0|!
0}!
1%"
1Q"
0R"
0&"
1("
1}!
0%"
10!
1.!
0Q"
1P"
1&"
0("
0)"
13"
1M
1K
1O"
0P"
04"
16"
1)"
03"
0O"
1N"
14"
06"
07"
1A"
1M"
0N"
0B"
1D"
17"
0A"
0M"
1L"
1B"
0D"
0E"
1I"
1A#
0L"
0J"
1E"
0I"
0A#
1@#
1J"
0@#
#45000
1@
1}
1:!
0z"
1<!
0H!
1L!
0@!
0=#
0Y"
0I!
1>#
0M!
1X"
19#
1S!
11!
1N
#48000
0@
0?
0T
0>
0S
0=
0R
1<
1Q
0}
0|
0{
0z
1y
0#!
0"!
0!!
1~
16!
09!
08!
05!
1Q!
0E!
0>!
0D!
0:!
1z"
1u"
1w"
1s"
0q"
1y"
1|"
1}"
0{"
0S!
0[!
0b!
0i!
0;!
1@!
0d!
1h!
0o!
0r!
0}!
0&"
0)"
04"
07"
0B"
0E"
0J"
1\!
0G!
1Z!
1M!
1J!
0Y!
0L!
1=#
1;#
0?#
09#
07#
1:#
05#
1@#
1A#
1L"
1M"
1N"
1O"
1P"
1Q"
1R"
1S"
03#
1T"
0>#
0<!
0J!
1Y"
1A!
1K!
1?#
0.!
0/!
00!
01!
0N
0M
0L
0K
0K!
12!
13!
1P
1O
02!
0O
#50000
10
1m
17!
0x"
1<!
1L!
0=#
0Y"
#51000
1@
1}
1:!
0z"
0<!
1H!
1Y"
1I!
0X"
#54000
0@
1?
1T
0}
1|
1#!
15!
1D!
0:!
1z"
0u"
0y"
1;!
0?!
0M!
0O!
1T!
1R!
1U!
0\!
0a!
1d!
1o!
1r!
1}!
1&"
1)"
14"
17"
1B"
1E"
1J"
1Y!
0L!
1=#
0;#
0@#
0A#
0L"
0M"
0N"
0O"
0P"
0Q"
0R"
0S"
0T"
1U"
15#
0V"
08#
1W"
19#
1<#
0U!
1`!
1<!
0@!
1S!
0Y"
1V"
1a!
1>#
0U"
0A!
11!
1N
03!
0P
#57000
1@
1}
1:!
0z"
0<!
1L!
0=#
1Y"
#60000
0@
0?
0T
00
1>
1S
1/
0}
0|
1{
0#!
1"!
0m
1l
1C!
07!
18!
05!
1>!
0D!
0:!
1z"
1u"
0w"
1y"
0|"
1x"
0t"
0S!
1b!
1i!
1p!
1w!
1~!
1'"
1."
15"
1<"
1C"
1G"
1K"
0;!
0R!
1U!
0`!
0Z!
0a!
1c!
0d!
0h!
0m!
0o!
0r!
0v!
0x!
0}!
0$"
0&"
0)"
0*"
0/"
04"
07"
0;"
0@"
0B"
0E"
0F"
0H"
0J"
1?!
1M!
0I!
1N!
1J!
1<!
0H!
0L!
1=#
0Y"
0?#
1X"
09#
0<#
1@#
1~"
1!#
1A#
1L"
1##
1%#
1M"
1N"
1'#
1)#
1O"
1P"
1+#
1Q"
1-#
1/#
1R"
1S"
11#
13#
1T"
1U"
17#
0V"
18#
1I!
0N!
1O!
1d!
1a!
0c!
0<!
1[!
0b!
0i!
0p!
0w!
0~!
0'"
0."
05"
0<"
0C"
0G"
0K"
0J!
1@!
1Y"
0U"
0T"
0W"
0X"
1K!
0d!
0O!
0>#
1?#
1$!
1%!
1&!
1'!
1(!
1)!
1*!
1+!
1,!
1-!
1.!
1/!
01!
1J!
1S!
1i!
1b!
0@!
1W"
1T"
1>#
0?#
0N
1L
1K
1J
1I
1H
1G
1F
1E
1D
1C
1B
1A
0K!
1A!
0i!
0S!
0$!
0%!
0&!
0'!
0(!
0)!
0*!
0+!
0,!
0-!
0.!
0/!
10!
12!
1K!
0A!
1M
0L
0K
0J
0I
0H
0G
0F
0E
0D
0C
0B
0A
1/!
1.!
11!
1O
1N
1L
1K
01!
0.!
13!
02!
1P
0O
0N
0K
03!
12!
0P
1O
#63000
1@
1}
1:!
0z"
1<!
0Y"
1@!
0>#
1A!
13!
1P
